<?xml version="1.0" standalone="no"?>
<!DOCTYPE svg PUBLIC "-//W3C//DTD SVG 1.1//EN" "http://www.w3.org/Graphics/SVG/1.1/DTD/svg11.dtd" >
<!--
2016-7-23: Created.
-->
<svg xmlns="http://www.w3.org/2000/svg">
<metadata>
Created by FontForge 20120731 at Sat Jul 23 11:48:55 2016
 By Apache
Created by Apache with FontForge 2.0 (http://fontforge.sf.net)
</metadata>
<defs>
<font id="Flaticon" horiz-adv-x="512" >
  <font-face 
    font-family="Flaticon"
    font-weight="500"
    font-stretch="normal"
    units-per-em="512"
    panose-1="2 0 6 3 0 0 0 0 0 0"
    ascent="448"
    descent="-64"
    bbox="-0.0324707 -64 512.001 448"
    underline-thickness="25.6"
    underline-position="-51.2"
    unicode-range="U+0020-F105"
  />
    <missing-glyph />
    <glyph glyph-name="space" unicode=" " horiz-adv-x="200" 
 />
    <glyph glyph-name="uniF101" unicode="&#xf101;" 
d="M345.713 335.722l97.7354 -97.79c4.15039 -4.15039 4.15039 -10.8936 0 -15.0322l-67.5391 -67.5283l16.4482 -16.46c12.4189 -12.4297 11.5908 -33.5186 -1.87305 -46.9834c-6.58008 -6.60156 -14.9678 -10.1094 -23.2793 -10.5879
c-0.479492 -8.31152 -3.99805 -16.6895 -10.5664 -23.2686c-6.60156 -6.58008 -14.9678 -10.0869 -23.2578 -10.5771c-0.500977 -8.30078 -4.03027 -16.6895 -10.6104 -23.2578c-6.55762 -6.5791 -14.9561 -10.0977 -23.2568 -10.5879
c-0.490234 -8.30078 -3.99805 -16.6895 -10.5664 -23.2578c-13.4863 -13.4639 -34.543 -14.3359 -46.9941 -1.88477l-39.0098 38.999l-19.8691 -19.8594c-8.32227 -8.31152 -22.626 -7.45117 -31.9609 1.87402c-9.34668 9.35742 -10.1855 23.6602 -1.88477 31.9502
c-8.30078 -8.30078 -22.6143 -7.45117 -31.9609 1.89551c-9.34668 9.33594 -10.1855 23.6387 -1.87402 31.9502c-8.31152 -8.31152 -22.6367 -7.42969 -31.9609 1.88477c-9.34668 9.34668 -10.1963 23.6494 -1.88477 31.9609
c-8.31152 -8.31152 -22.626 -7.45117 -31.9502 1.87402c-9.35742 9.35742 -10.1963 23.6709 -1.89551 31.9609l18.8125 18.8125l-63.4424 63.4326c-4.13965 4.16113 -4.13965 10.9043 0 15.0439c4.15039 4.16113 10.8926 4.16113 15.043 0l63.6064 -63.6064
c8.46484 6.65527 21.4824 5.46777 30.2188 -3.26855c9.33594 -9.35742 10.1963 -23.6709 1.87402 -31.9717c8.32227 8.30078 22.6357 7.45117 31.9609 -1.89551c9.35742 -9.3252 10.1963 -23.6387 1.89551 -31.9395c8.30078 8.30078 22.6143 7.44043 31.9609 -1.88477
c9.34668 -9.33594 10.1631 -23.6602 1.86328 -31.9717c8.2998 8.32227 22.6465 7.46191 31.9717 -1.85254c8.32227 -8.35449 9.84766 -20.5879 4.2373 -29.0195l39.2812 -39.3145c4.06348 -4.07422 11.8086 -3.21289 16.9287 1.88477
c5.08691 5.09766 5.95898 12.8438 1.87402 16.9287l-32.2666 32.2764c-4.13965 4.12891 -4.13965 10.8721 0 15.0225c4.15039 4.15039 10.8936 4.15039 15.0332 0l32.2656 -32.2559c4.08496 -4.08496 11.8311 -3.21289 16.918 1.87402
c5.08691 5.09863 5.96973 12.8438 1.89551 16.918l-32.2666 32.2656c-4.16113 4.16113 -4.16113 10.9043 0 15.0332c4.13965 4.16113 10.8721 4.16113 15.0332 0l32.2773 -32.2559c4.05176 -4.0625 11.8193 -3.21289 16.917 1.89551
c5.09766 5.08789 5.94824 12.833 1.87402 16.8955l-32.2666 32.2773c-4.16113 4.15039 -4.16113 10.8936 0 15.0225c4.16113 4.17188 10.8721 4.17188 15.0332 0l32.2656 -32.2559c4.07422 -4.06348 11.8301 -3.19141 16.9287 1.89551
c5.10938 5.09863 5.95898 12.8438 1.87402 16.9287c0 0 -114.85 115.339 -136.756 136.483c-2.53809 2.43945 -8.50781 8.19141 -21.0684 -4.37988c-3.68164 -3.68164 -7.17871 -8.34375 -9.58594 -12.8428l-14.6406 -27.1572
c-1.4375 -2.67969 -3.87793 -5.83887 -6.74316 -8.7041c-10.959 -10.9473 -24.9561 -15.3379 -38.4531 -12.1025c-12.0596 2.88672 -22.1465 10.9043 -27.7461 22.0264c-3.91016 7.78906 -4.75977 15.5996 -2.26562 21.46l43.5518 102.441
c1.56836 3.6709 4.62988 7.88672 8.62793 11.8848c6.85156 6.87402 32.2881 28.29 71.3838 16.0137l97.7686 -30.6982c1.62305 -0.511719 3.12598 -1.39355 4.33594 -2.61426zM505.78 311.952c8.28906 -8.30078 8.28906 -21.7754 0 -30.0869l-30.0771 -30.0771
c-8.30078 -8.30078 -21.7754 -8.30078 -30.0879 0l-86.0791 86.0908c-8.30078 8.30078 -8.30078 21.7754 0 30.0762l30.0879 30.0664c8.31152 8.31152 21.7861 8.31152 30.0869 0zM460.605 268.117c9.64062 0 17.4512 7.82227 17.4619 17.4512
c0 9.65234 -7.82129 17.4629 -17.4619 17.4629c-9.62988 0 -17.4521 -7.82227 -17.4521 -17.4629s7.82227 -17.4512 17.4521 -17.4512z" />
    <glyph glyph-name="uniF105" unicode="&#xf105;" 
d="M259.877 411.429c11.998 0 21.7236 -9.72656 21.7246 -21.7227v-0.44043c0 -11.9971 -9.72559 -21.7236 -21.7227 -21.7236h-95.5254c-11.9971 0 -21.7227 9.72559 -21.7227 21.7236v0.439453c0 11.9971 9.72559 21.7227 21.7227 21.7227h11.2637
c6.01855 0 10.8984 4.87988 10.8984 10.8984v0.366211c0 13.9775 11.3301 25.3076 25.3066 25.3076h0.584961c13.9775 0 25.3076 -11.3301 25.3076 -25.3076v-0.366211c0 -6.01758 4.87988 -10.8975 10.8984 -10.8975h11.2637zM212.114 411.429
c6.05957 0 10.9717 4.91211 10.9717 10.9717s-4.91211 10.9717 -10.9717 10.9717c-6.05859 0 -10.9707 -4.91211 -10.9707 -10.9717c0 -6.05859 4.91113 -10.9717 10.9707 -10.9717zM260.96 -12.7998h-184.16c-16.1582 0 -29.2568 13.0986 -29.2568 29.2568v351.086
c0 16.1582 13.0986 29.2568 21.9424 29.2568h59.2764c-0.494141 -2.42969 -0.760742 -4.94727 -0.760742 -7.53613c0 -20.043 16.3066 -36.3496 36.3535 -36.3496h95.5215c20.0479 0 36.3525 16.3066 36.3525 36.792c0 2.42871 -0.259766 4.79688 -0.714844 7.09375h44.6006
c23.4746 0 36.5723 -13.0986 36.5723 -29.2568v-219.799c-2.43164 0.152344 -4.84473 0.370117 -7.31348 0.370117c-10.1182 0 -19.8867 -1.42578 -29.2588 -3.85156v172.08h-256v-292.571h168.599c0.801758 -12.8564 3.61133 -25.1621 8.24707 -36.5713zM369.372 126.171
c52.5146 0 95.085 -42.5723 95.085 -95.085c0 -52.5137 -42.5703 -95.0859 -95.085 -95.0859c-52.5156 0 -95.085 42.5723 -95.085 95.0859c0 52.5127 42.5703 95.085 95.085 95.085zM431.504 50.6221c5.36719 6.04199 4.8252 15.2842 -1.21582 20.6553
c-6.03906 5.37207 -15.2891 4.82227 -20.6504 -1.21387l-49.2891 -55.4502l-25.7236 20.5791c-6.30762 5.05176 -15.5186 4.0293 -20.5605 -2.28418c-5.05078 -6.30762 -4.02539 -15.5156 2.28125 -20.5586l36.5723 -29.2568
c2.69238 -2.15625 5.9209 -3.20605 9.13184 -3.20605c4.04297 0 8.05762 1.66309 10.9395 4.90625zM303.543 192h-117.027c-4.04004 0 -7.31445 3.27539 -7.31445 7.31445v7.31445c0 4.04004 3.27441 7.31445 7.31445 7.31445h117.027
c4.03906 0 7.31543 -3.27539 7.31543 -7.31445v-7.31445c-0.00195312 -4.03906 -3.27637 -7.31445 -7.31543 -7.31445zM303.543 257.829h-117.027c-4.04004 0 -7.31445 3.27539 -7.31445 7.31445v7.31445c0 4.04004 3.27441 7.31445 7.31445 7.31445h117.027
c4.03906 0 7.31543 -3.27539 7.31543 -7.31445v-7.31445c-0.00195312 -4.04004 -3.27637 -7.31445 -7.31543 -7.31445zM266.971 133.485h-80.4551c-4.04004 0 -7.31445 3.27539 -7.31445 7.31445v7.31445c0 4.04004 3.27441 7.31445 7.31445 7.31445h80.4551
c4.04102 0 7.31543 -3.27441 7.31543 -7.31445v-7.31445c-0.000976562 -4.03906 -3.27441 -7.31445 -7.31543 -7.31445zM252.343 67.6572h-65.8281c-4.04004 0 -7.31445 3.27441 -7.31445 7.31348v7.31445c0 4.04004 3.27441 7.31445 7.31445 7.31445h65.8281
c4.04004 0 7.31445 -3.27441 7.31445 -7.31445v-7.31445c0 -4.03906 -3.27441 -7.31348 -7.31445 -7.31348zM165.196 284.879l-26.9375 -30.3057c-1.32715 -1.49316 -3.1748 -2.25977 -5.03711 -2.25977c-1.47754 0 -2.96387 0.484375 -4.20312 1.47754l-16.8369 13.4678
c-2.9043 2.32129 -3.375 6.55957 -1.05078 9.46387c2.32031 2.90723 6.5625 3.37695 9.46484 1.05273l11.8428 -9.47363l22.6904 25.5273c2.46875 2.77832 6.72656 3.03223 9.50684 0.55957c2.78223 -2.47363 3.03125 -6.72852 0.560547 -9.50977zM165.196 219.803
l-26.9375 -30.3037c-1.32715 -1.49414 -3.1748 -2.25879 -5.03711 -2.25879c-1.47754 0 -2.96387 0.482422 -4.20312 1.47656l-16.8369 13.4678c-2.9043 2.32129 -3.375 6.55957 -1.05078 9.46387c2.32031 2.90723 6.5625 3.37695 9.46484 1.05273l11.8428 -9.47363
l22.6904 25.5273c2.46875 2.77832 6.72656 3.03125 9.50684 0.557617c2.78223 -2.47266 3.03125 -6.72852 0.560547 -9.50977zM165.196 157.568l-26.9375 -30.3047c-1.32715 -1.49219 -3.1748 -2.25879 -5.03711 -2.25879c-1.47754 0 -2.96387 0.482422 -4.20312 1.47656
l-16.8369 13.4697c-2.9043 2.32031 -3.375 6.55957 -1.05078 9.46289c2.32031 2.90723 6.5625 3.37793 9.46484 1.05273l11.8428 -9.47266l22.6904 25.5273c2.46875 2.77832 6.72656 3.03125 9.50684 0.558594c2.78223 -2.47461 3.03125 -6.72949 0.560547 -9.51172z
M165.196 94.8955l-26.9375 -30.3047c-1.32715 -1.49316 -3.1748 -2.25879 -5.03711 -2.25879c-1.47754 0 -2.96387 0.482422 -4.20312 1.47656l-16.8369 13.4688c-2.9043 2.32129 -3.375 6.56055 -1.05078 9.46387c2.32031 2.90723 6.5625 3.37793 9.46484 1.05273
l11.8428 -9.47266l22.6904 25.5273c2.46875 2.77832 6.72656 3.03125 9.50684 0.558594c2.78223 -2.47461 3.03125 -6.73047 0.560547 -9.51172z" />
    <glyph glyph-name="uniF100" unicode="&#xf100;" 
d="M191.368 274.378c-5.92578 -5.02246 -11.2314 -10.7197 -15.9375 -16.9404l-31.1016 29.4023c-7.10254 -4.44434 -15.4248 -7.12402 -24.4229 -7.12402c-25.5244 0 -46.2217 20.6758 -46.2217 46.1992c0 25.5244 20.6973 46.1787 46.2217 46.1787
c25.5234 0 46.1885 -20.666 46.1885 -46.1787c0 -8.0498 -2.24414 -15.5127 -5.87109 -22.1025zM323.104 278.06c-6.16602 4.69531 -12.8545 8.7041 -19.9463 11.918l41.2539 69.4463c-8.25684 8.35547 -13.3662 19.8047 -13.3662 32.4736
c0 25.5244 20.6543 46.1787 46.1787 46.1787c25.5664 0 46.2324 -20.665 46.2324 -46.1787c0 -25.5234 -20.666 -46.1992 -46.2324 -46.1992c-4.43457 0 -8.66113 0.838867 -12.7354 2.00391zM465.833 219.757c25.5127 0 46.167 -20.6758 46.167 -46.1777
c0 -25.5127 -20.6543 -46.167 -46.167 -46.167c-23.04 0 -42.0273 16.9062 -45.5029 38.9551l-57.4746 5.67578c1.49219 7.07031 2.32031 14.3906 2.32031 21.8848c0 0.425781 -0.0654297 0.838867 -0.0654297 1.27539l57.4971 -5.67578
c6.52441 17.6035 23.3555 30.2295 43.2256 30.2295zM307.167 38.1387c24.8594 -0.741211 44.8164 -21.0137 44.7842 -46.0586c0 -25.502 -20.6543 -46.1562 -46.167 -46.1562c-25.5674 0 -46.2217 20.6436 -46.2217 46.1562c0 17.8223 10.1855 33.084 24.9463 40.8076
l-12.876 56.1787c7.87598 0.904297 15.4248 2.71191 22.6797 5.23926zM156.399 171.629c1.66699 -7.70215 4.23828 -15.0547 7.47363 -22.0381l-71.7998 -24.042c0.0869141 -1.0459 0.31543 -2.02637 0.31543 -3.09375c0 -25.5459 -20.709 -46.2109 -46.2109 -46.2109
c-25.5234 0 -46.1777 20.665 -46.1777 46.2109c0 25.5127 20.6543 46.1777 46.1777 46.1777c16.1777 0 30.3936 -8.36621 38.6504 -20.9805zM180.388 193.928c0 52.8053 26.4023 79.208 79.207 79.208c52.8053 0 79.208 -26.4027 79.208 -79.208
c0 -52.8047 -26.4027 -79.207 -79.208 -79.207c-52.8047 0 -79.207 26.4023 -79.207 79.207z" />
    <glyph glyph-name="uniF103" unicode="&#xf103;" 
d="M500.457 339.354h-57.4482c-30.748 -196.046 -243.296 -301.547 -427.788 -237.339c-6.40918 2.22656 -3.76855 11.001 2.75195 9.98535c148.249 -23.3184 278.525 86.3584 301.478 227.354h-68.1719l62.2949 54.3232l62.2998 54.3232l62.2891 -54.3232zM362.284 157.188
v-221.188h-63.7725v175.15c23.1973 12.9033 44.6201 28.3301 63.7725 46.0381zM202.854 -64v139.326c22.1768 4.76172 43.5088 11.5693 63.7725 20.2051v-159.531h-63.7725zM394.17 -64v255.418c30.4307 37.7959 52.1553 82.5479 62.1621 131.992h1.61035v-387.41h-63.7725z
M75.3096 71.0742v-135.074h-63.7725v150.46c20.79 -7.1377 42.1162 -12.2178 63.7725 -15.3857zM107.195 -64v131.875c6.47363 -0.350586 12.9619 -0.594727 19.4775 -0.594727c15.0127 0 29.792 0.924805 44.2949 2.68359v-133.964h-63.7725z" />
    <glyph glyph-name="uniF102" unicode="&#xf102;" 
d="M340.128 191.433c11.4746 -4.65332 28.0156 -14.2236 28.0137 -39.8018c0 -19.8047 -10.3359 -33.8369 -28.0156 -38.6523v-3.1875c0 -5.89844 -5.28711 -10.8818 -11.5479 -10.8818c-6.36719 0 -11.5479 4.88281 -11.5479 10.8818v1.84863
c-19.2988 2.66797 -32.9512 14.4395 -32.9512 24.9941c0 6.54004 5.43164 13.8525 12.7012 13.8525c4.52051 0 7.36816 -2.96094 9.65527 -5.33887c2.40723 -2.50293 5.23242 -5.44238 10.5967 -7.02832v33.5791c-13.7695 5.04883 -29.9883 12.9648 -29.9883 36.6191
c0 18.7139 11.0645 31.4658 29.9883 35.1475v1.40918c0 6.00781 5.18066 10.8945 11.5479 10.8945c6.25977 0 11.5479 -4.98926 11.5479 -10.8945v-0.84375c11.5371 -1.7041 25.0488 -6.52734 25.0488 -17.0898c0 -5.66504 -4.46484 -13.8584 -12.5391 -13.8584
c-2.87695 0 -5.20801 1.19043 -7.46387 2.33984c-1.43848 0.732422 -3.04492 1.5498 -5.0459 2.24219v-26.2314zM317.367 200.51v16.4863c-4.42969 -2.30957 -4.42969 -5.86621 -4.42969 -7.69629c0 -3.95801 1.03906 -6.49023 4.42969 -8.79004zM339.638 141.656
c1.67285 2.15527 2.44531 5.09961 2.44531 8.9834c0 4.15332 -0.803711 7.1543 -2.44531 9.52441v-18.5078zM453.477 448c12.8535 0 23.2734 -10.4199 23.2686 -23.2725v-465.455c0 -9.41113 -5.6709 -17.8984 -14.3672 -21.501
c-2.87793 -1.19238 -5.90234 -1.77148 -8.90137 -1.77148c-6.05566 0 -12.0088 2.36426 -16.46 6.81738l-49.3672 49.3691l-49.3682 -49.3691c-4.3623 -4.36426 -10.2812 -6.81738 -16.4551 -6.81738c-6.17188 0 -12.0908 2.45312 -16.4551 6.81738l-49.3691 49.3691
l-49.3691 -49.3691c-4.36523 -4.36621 -10.2842 -6.81738 -16.4561 -6.81738c-6.17285 0 -12.0928 2.45312 -16.457 6.81738l-49.3672 49.3691l-49.3682 -49.3691c-6.65527 -6.65625 -16.666 -8.64648 -25.3623 -5.0459c-8.69629 3.60156 -14.3672 12.0879 -14.3672 21.501
v465.455c0 12.8525 10.4199 23.2725 23.2725 23.2725h394.949zM430.207 15.459v385.995h-348.403v-385.995l26.0947 26.0957c4.36426 4.36426 10.2832 6.81738 16.457 6.81738s12.0928 -2.45312 16.457 -6.81738l49.3672 -49.3701l49.3691 49.3701
c4.54297 4.5459 10.5 6.81738 16.4561 6.81738s11.9111 -2.27344 16.4551 -6.81738l49.3691 -49.3701l49.3682 49.3701c4.3623 4.36426 10.2812 6.81738 16.4551 6.81738s12.0928 -2.45312 16.457 -6.81738l26.0947 -26.0957h0.00292969zM151.619 292.849
c-12.8535 0 -23.2734 10.4199 -23.2734 23.2725s10.4199 23.2725 23.2734 23.2725h208.767c12.8525 0 23.2725 -10.4199 23.2725 -23.2725s-10.4199 -23.2725 -23.2725 -23.2725h-208.767zM151.619 199.758c-12.8535 0 -23.2734 10.4199 -23.2734 23.2725
s10.4199 23.2725 23.2734 23.2725h84.6455c12.8525 0 23.2725 -10.4199 23.2725 -23.2725s-10.4199 -23.2725 -23.2725 -23.2725h-84.6455zM151.619 106.667c-12.8535 0 -23.2734 10.4199 -23.2734 23.2725s10.4199 23.2725 23.2734 23.2725h84.6455
c12.8525 0 23.2725 -10.4199 23.2725 -23.2725s-10.4199 -23.2725 -23.2725 -23.2725h-84.6455z" />
    <glyph glyph-name="uniF104" unicode="&#xf104;" 
d="M294.951 284.975h73.4883l14.709 -51.9189h-88.1973v51.9189zM295.364 164.333v51.8896h88.1592l14.7334 -51.8896h-102.893zM381.424 317.631c9.28613 0 16.833 -6.11523 16.833 -13.585l55.8623 -228.093c0 -7.49414 -7.56055 -13.5947 -16.8701 -13.5947h-37.1191
h-20.6182h-315.007h-22.1113h-25.5273c-9.31445 0 -16.8662 6.0957 -16.8662 13.5947l44.084 228.093c0 7.46973 7.57617 13.585 16.8662 13.585h320.474zM20.2285 78.6719h413.672l-55.8633 222.646h-313.72zM158.755 284.975v-51.9189h-94.0674l14.7139 51.9189h79.3535z
M180.242 233.074v51.9004h94.0479v-51.9004h-94.0479zM50.377 164.333l14.7139 51.8896h94.0625v-51.8896h-108.776zM180.593 164.328v51.8945h94.0723v-51.8945h-94.0723zM38.6318 95.0234l14.6943 51.9199h105.827v-51.9199h-120.521zM180.593 95.0234v51.9199h94.0723
v-51.9199h-94.0723zM295.364 146.943h102.893l14.6943 -51.9199h-117.587v51.9199zM244.123 50.2812v-73.8818h44.8145v-25.1523h-125.691v25.1523h43.6904v73.8818h37.1865zM391.781 328.588l-0.00488281 -0.0195312h-76.6396
c9.88184 26.3438 35.1299 45.1992 64.9375 45.1992c38.4688 0 69.6162 -31.1572 69.6162 -69.5928c0 -21.5303 -10.0107 -40.5479 -25.3643 -53.3164l-15.7129 64.1396c0 7.49902 -7.56152 13.5898 -16.832 13.5898zM510.967 305.761
c1.37891 -0.384766 1.37891 -2.7627 0 -3.15137l-38.2041 -10.2656c-0.480469 -0.139648 -1.02344 -0.0576172 -1.41699 0.263672c-0.408203 0.302734 -0.624023 0.797852 -0.624023 1.29688v20.541c0 0.519531 0.21582 0.990234 0.624023 1.29297
c0.393555 0.321289 0.936523 0.426758 1.41699 0.288086zM369.799 391.46c-0.475586 0 -0.96582 0.235352 -1.25879 0.638672c-0.316406 0.388672 -0.427734 0.913086 -0.283203 1.39746l10.2754 38.2002c0.379883 1.41211 2.76172 1.41211 3.12207 0l10.2949 -38.2002
c0.110352 -0.484375 0 -0.999023 -0.297852 -1.39746c-0.302734 -0.40332 -0.77832 -0.638672 -1.28711 -0.638672h-20.5654zM449.057 358.636l-14.5361 14.5264c-0.350586 0.355469 -0.529297 0.864258 -0.461914 1.36426
c0.0673828 0.485352 0.375 0.946289 0.802734 1.17676l34.2461 19.748c1.28223 0.740234 2.95898 -0.941406 2.2334 -2.20898l-19.7246 -34.2705c-0.263672 -0.446289 -0.719727 -0.749023 -1.19531 -0.797852c-0.509766 -0.0664062 -1.00391 0.106445 -1.36426 0.461914z
M443.729 249.397l19.7627 -34.2695c0.725586 -1.25879 -0.964844 -2.94043 -2.2334 -2.21973l-32.1904 18.5332l-1.19531 4.96191l13.3301 13.3311c0.360352 0.350586 0.855469 0.52832 1.35938 0.451172c0.475586 -0.0673828 0.922852 -0.370117 1.16699 -0.788086z
M301.907 358.131c-0.475586 0.0478516 -0.855469 0.283203 -1.10449 0.720703l-17.1787 31.6855c-0.643555 1.17676 1.07129 2.84375 2.21973 2.21973l31.6904 -17.1689c0.393555 -0.225586 0.691406 -0.628906 0.691406 -1.09473
c0.0673828 -0.485352 -0.134766 -0.975586 -0.475586 -1.33105l-14.5312 -14.5215c-0.345703 -0.355469 -0.850586 -0.542969 -1.31152 -0.509766z" />
  </font>
</defs></svg>
